Unifide_pipeline_controller_1/Unifide_pipeline_controller_1.sim/sim_1/behav/xsim/pipeline_controller_tb.vcd
$date
   Tue Nov 18 06:41:17 2025
$end
$version
  2020.2
$end
$timescale
  1ps
$end
$scope module tb_pipeline_controller $end
$var reg 1 ! clk $end
$var reg 1 " reset $end
$var reg 32 # IF_instruction [31:0] $end
$var reg 32 $ ID_instruction [31:0] $end
$var reg 6 % ID_opcode [5:0] $end
$var reg 6 & ID_funct [5:0] $end
$var reg 5 ' ID_rs [4:0] $end
$var reg 5 ( ID_rt [4:0] $end
$var reg 5 ) EX_rd [4:0] $end
$var reg 5 * MEM_rd [4:0] $end
$var reg 5 + WB_rd [4:0] $end
$var reg 1 , EX_RegWrite $end
$var reg 1 - MEM_RegWrite $end
$var reg 1 . WB_RegWrite $end
$var reg 1 / EX_MemRead $end
$var reg 1 0 MEM_MemRead $end
$var reg 1 1 EX_MemToReg $end
$var reg 1 2 Zero $end
$var reg 1 3 branch_condition $end
$var wire 2 4 RegDst [1:0] $end
$var wire 3 5 ALUOp [2:0] $end
$var wire 1 6 ALUSrc $end
$var wire 1 7 Branch $end
$var wire 1 8 MemRead $end
$var wire 1 9 MemWrite $end
$var wire 2 : MemToReg [1:0] $end
$var wire 1 ; RegWrite $end
$var wire 1 < Jump $end
$var wire 2 = ImmSrc [1:0] $end
$var wire 2 > ForwardA [1:0] $end
$var wire 2 ? ForwardB [1:0] $end
$var wire 2 @ ForwardC [1:0] $end
$var wire 1 A Stall $end
$var wire 1 B Bubble $end
$var wire 1 C BranchZero $end
$var wire 1 D BranchTaken $end
$var wire 1 E PCWrite $end
$var wire 1 F IF_ID_Write $end
$var wire 1 G Flush_IF_ID $end
$var wire 1 H ID_EX_Flush $end
$var wire 2 I PC_src [1:0] $end
$var wire 1 J TargetAddrReady $end
$var integer 32 K test_num $end
$var integer 32 L passed_tests $end
$var integer 32 M failed_tests $end
$scope module dut $end
$var wire 1 N clk $end
$var wire 1 O reset $end
$var wire 32 P IF_instruction [31:0] $end
$var wire 32 Q ID_instruction [31:0] $end
$var wire 6 R ID_opcode [5:0] $end
$var wire 6 S ID_funct [5:0] $end
$var wire 5 T ID_rs [4:0] $end
$var wire 5 U ID_rt [4:0] $end
$var wire 5 V EX_rd [4:0] $end
$var wire 5 W MEM_rd [4:0] $end
$var wire 5 X WB_rd [4:0] $end
$var wire 1 Y EX_RegWrite $end
$var wire 1 Z MEM_RegWrite $end
$var wire 1 [ WB_RegWrite $end
$var wire 1 \ EX_MemRead $end
$var wire 1 ] MEM_MemRead $end
$var wire 1 ^ EX_MemToReg $end
$var wire 1 _ Zero $end
$var wire 1 ` branch_condition $end
$var reg 2 a RegDst [1:0] $end
$var reg 3 b ALUOp [2:0] $end
$var reg 1 c ALUSrc $end
$var reg 1 d Branch $end
$var reg 1 e MemRead $end
$var reg 1 f MemWrite $end
$var reg 2 g MemToReg [1:0] $end
$var reg 1 h RegWrite $end
$var reg 1 i Jump $end
$var reg 2 j ImmSrc [1:0] $end
$var reg 2 k ForwardA [1:0] $end
$var reg 2 l ForwardB [1:0] $end
$var reg 2 m ForwardC [1:0] $end
$var reg 1 n Stall $end
$var reg 1 o Bubble $end
$var reg 1 p BranchZero $end
$var reg 1 q BranchTaken $end
$var reg 1 r PCWrite $end
$var reg 1 s IF_ID_Write $end
$var reg 1 t Flush_IF_ID $end
$var reg 1 u ID_EX_Flush $end
$var reg 2 v PC_src [1:0] $end
$var reg 1 w TargetAddrReady $end
$var reg 1 x is_rtype $end
$var reg 1 y is_itype $end
$var reg 1 z is_load $end
$var reg 1 { is_store $end
$var reg 1 | is_branch $end
$var reg 1 } is_jump $end
$var reg 1 ~ uses_rs $end
$var reg 1 !! uses_rt $end
$var reg 1 "! writes_reg $end
$var reg 1 #! raw_hazard_ex_rs $end
$var reg 1 $! raw_hazard_ex_rt $end
$var reg 1 %! raw_hazard_mem_rs $end
$var reg 1 &! raw_hazard_mem_rt $end
$var reg 1 '! raw_hazard_ex_cmp $end
$var reg 1 (! raw_hazard_mem_cmp $end
$var reg 1 )! load_use_hazard $end
$var reg 1 *! branch_condition_met $end
$var parameter 6 +! OP_RTYPE [5:0] $end
$var parameter 6 ,! OP_LW [5:0] $end
$var parameter 6 -! OP_SW [5:0] $end
$var parameter 6 .! OP_BEQ [5:0] $end
$var parameter 6 /! OP_BNE [5:0] $end
$var parameter 6 0! OP_ADDI [5:0] $end
$var parameter 6 1! OP_ANDI [5:0] $end
$var parameter 6 2! OP_ORI [5:0] $end
$var parameter 6 3! OP_SLTI [5:0] $end
$var parameter 6 4! OP_J [5:0] $end
$var parameter 6 5! OP_JAL [5:0] $end
$var parameter 6 6! OP_JR [5:0] $end
$var parameter 6 7! FUNCT_ADD [5:0] $end
$var parameter 6 8! FUNCT_SUB [5:0] $end
$var parameter 6 9! FUNCT_AND [5:0] $end
$var parameter 6 :! FUNCT_OR [5:0] $end
$var parameter 6 ;! FUNCT_SLT [5:0] $end
$var parameter 6 <! FUNCT_JR [5:0] $end
$upscope $end
$scope task init_inputs $end
$upscope $end
$scope task check_signal_1bit $end
$var reg 800 =! signal_name [800:1] $end
$var reg 1 >! expected $end
$var reg 1 ?! actual $end
$upscope $end
$scope task check_signal_2bit $end
$var reg 800 @! signal_name [800:1] $end
$var reg 2 A! expected [1:0] $end
$var reg 2 B! actual [1:0] $end
$upscope $end
$scope task check_signal_3bit $end
$var reg 800 C! signal_name [800:1] $end
$var reg 3 D! expected [2:0] $end
$var reg 3 E! actual [2:0] $end
$upscope $end
$scope task print_header $end
$var reg 1600 F! test_name [1600:1] $end
$upscope $end
$upscope $end
$enddefinitions $end
#0
$dumpvars
0!
1!!
1"
1"!
b0 #
0#!
b0 $
0$!
b0 %
0%!
b0 &
0&!
b0 '
0'!
b0 (
0(!
b0 )
0)!
b0 *
0*!
b0 +
b0 +!
0,
b100011 ,!
0-
b101011 -!
0.
b100 .!
0/
b101 /!
00
b1000 0!
01
b1100 1!
02
b1101 2!
03
b1010 3!
b1 4
b10 4!
b10 5
b11 5!
06
b1000 6!
07
b100000 7!
08
b100010 8!
09
b100100 9!
b0 :
b100101 :!
1;
b101010 ;!
0<
b1000 <!
b0 =
bx =!
b0 >
x>!
b0 ?
x?!
b0 @
bx @!
0A
bx A!
0B
bx B!
1C
bx C!
0D
bx D!
1E
bx E!
1F
bx F!
0G
0H
b0 I
0J
b1 K
b0 L
b0 M
0N
1O
b0 P
b0 Q
b0 R
b0 S
b0 T
b0 U
b0 V
b0 W
b0 X
0Y
0Z
0[
0\
0]
0^
0_
0`
b1 a
b10 b
0c
0d
0e
0f
b0 g
1h
0i
b0 j
b0 k
b0 l
b0 m
0n
0o
1p
0q
1r
1s
0t
0u
b0 v
0w
1x
0y
0z
0{
0|
0}
1~
$end
#5000
1!
1N
#10000
0!
0N
#15000
1!
1N
#20000
0!
0"
0N
0O
#25000
1!
1N
#30000
0!
b0 %
b100000 &
b110 '
b11 (
b101001000101101011101000111100101110000011001010010000001000001010001000100010000111010001000000100000101000100010001000010000001110010001101000010110000100000011100100011011000101100001000000111001000110011 F!
b10 K
0N
b100000 S
b110 T
b11 U
b1 a
b10 b
0c
0d
0e
0f
b0 g
1h
0i
b0 j
b0 k
b0 l
b0 m
0n
0o
#35000
1!
1N
#40000
0!
b0 %
b100010 &
b111 '
b10 (
b1001010011101010110110101110000 =!
0>!
0?!
b10100100110010101100111010001000111001101110100 @!
b1 A!
b1 B!
b100000101001100010101010100111101110000 C!
b10 D!
b10 E!
b101001000101101011101000111100101110000011001010010000001010011010101010100001000111010001000000101001101010101010000100010000001110010001101010010110000100000011100100011011100101100001000000111001000110010 F!
b11 K
b1000 L
0N
b100010 S
b111 T
b10 U
b1 a
b10 b
0c
0d
0e
0f
b0 g
1h
0i
b0 j
b0 k
b0 l
b0 m
0n
0o
#45000
1!
1N
#50000
0!
0!!
b100011 %
b0 &
b110 '
b101 (
b0 4
b0 5
16
18
b1 :
b101001001100101011001110101011101110010011010010111010001100101 =!
1>!
1?!
b100110001101111011000010110010000100000010101110110111101110010011001000011101000100000010011000101011100100000011100100011010100101100001000000011010000101000011100100011011000101001 F!
b100 K
b1011 L
0N
b100011 R
b0 S
b110 T
b101 U
b0 a
b0 b
1c
0d
1e
0f
b1 g
1h
0i
b0 j
b0 k
b0 l
b0 m
0n
0o
1p
0q
1r
1s
0w
0x
1y
1z
#55000
1!
1N
#60000
0!
1!!
b101011 %
b110 '
b101 (
08
19
b0 :
0;
b100110101100101011011010101011101110010011010010111010001100101 =!
0>!
0?!
b10010010110110101101101010100110111001001100011 @!
b0 A!
b0 B!
b0 D!
b0 E!
b10100110111010001101111011100100110010100100000010101110110111101110010011001000011101000100000010100110101011100100000011100100011010100101100001000000011100000101000011100100011011000101001 F!
b101 K
b10011 L
0N
b101011 R
b0 a
b0 b
1c
0d
0e
1f
b0 g
0h
0i
b0 j
b0 k
b0 l
b0 m
0n
0o
1p
0q
1r
1s
0w
0z
1{
#65000
1!
1N
#70000
0!
0"!
b100 %
b110 '
b101 (
1*!
12
b1 5
06
17
09
b10 =
b100110101100101011011010101011101110010011010010111010001100101 =!
1>!
1?!
1D
b1000010011100100110000101101110011000110110100000100000010001010111000101110101011000010110110000111010001000000100001001000101010100010010000001110010001101100010110000100000011100100011010100101100001000000110111101100110011001100111001101100101011101000010000000101000010101000100000101001011010001010100111000101001 F!
1G
1H
b1 I
1J
b110 K
b11001 L
0N
b100 R
1_
b0 a
b1 b
0c
1d
0e
0f
b0 g
0h
0i
b10 j
b0 k
b0 l
b0 m
1p
1q
1r
1s
1t
1u
b1 v
1w
0y
0{
1|
#75000
1!
1N
#80000
0!
b100 %
b110 '
b101 (
0*!
02
b100100101000100010111110100010101011000010111110100011001101100011101010111001101101000 =!
b10010010110110101101101010100110111001001100011 @!
b10 A!
b10 B!
0C
0D
b1 D!
b1 E!
b100001001110010011000010110111001100011011010000010000001000101011100010111010101100001011011000011101000100000010000100100010101010001001000000111001000110110001011000010000001110010001101010010110000100000011011110110011001100110011100110110010101110100001000000010100001001110010011110101010000100000010101000100000101001011010001010100111000101001 F!
0G
0H
b0 I
b111 K
b100001 L
0N
0_
0f
0p
0q
1r
1s
0t
0u
b0 v
1w
#85000
1!
1N
#90000
0!
b101 %
b110 '
b101 (
1*!
b100011001101100011101010111001101101000010111110100100101000110010111110100100101000100 =!
0>!
0?!
b10100000100001101011111011100110111001001100011 @!
b0 A!
b0 B!
1C
1D
b100001001110010011000010110111001100011011010000010000001001110011011110111010000100000010001010111000101110101011000010110110000111010001000000100001001001110010001010010000001110010001101100010110000100000011100100011010100101100001000000110111101100110011001100111001101100101011101000010000000101000010101000100000101001011010001010100111000101001 F!
1G
1H
b1 I
b1000 K
b100110 L
0N
b101 R
b0 a
b1 b
0c
1d
0e
0f
b0 g
0h
0i
b10 j
1p
1q
1r
1s
1t
1u
b1 v
1w
#95000
1!
1N
#100000
0!
0!!
b10 %
0*!
b0 5
07
1<
b11 =
b100001001110010011000010110111001100011011010000101010001100001011010110110010101101110 =!
1>!
1?!
b100101001110101011011010111000000111010001000000100101000100000011101000110000101110010011001110110010101110100 F!
b10 I
b1001 K
b101001 L
0N
b10 R
b0 a
b0 b
0c
0d
0e
0f
b0 g
0h
1i
b11 j
b0 k
b0 l
b0 m
0n
0o
1p
1q
1r
1s
1t
1u
b10 v
1w
0|
1}
0~
#105000
1!
1N
#110000
0!
1"!
b11 %
b10 4
b10 :
1;
b100011001101100011101010111001101101000010111110100100101000110010111110100100101000100 =!
1>!
1?!
b10010010110110101101101010100110111001001100011 @!
b11 A!
b11 B!
b1001010011101010110110101110000001000000110000101101110011001000010000001001100011010010110111001101011001110100010000001001010010000010100110000100000011101000110000101110010011001110110010101110100 F!
b1010 K
b101111 L
0N
b11 R
b10 a
b0 b
0c
0d
0e
0f
b10 g
1h
1i
b11 j
1p
1q
1r
1s
1t
1u
b10 v
1w
#115000
1!
1N
#120000
0!
b1000 %
b110 '
b101 (
b0 4
16
b0 :
0<
b0 =
b101001001100101011001110101011101110010011010010111010001100101 =!
b10010010110110101101101010100110111001001100011 @!
b11 A!
b11 B!
0D
b10000010110010001100100001000000100100101101101011011010110010101100100011010010110000101110100011001010011101000100000010000010100010001000100010010010010000001110010001101010010110000100000011100100011011000101100001000000011000100110000 F!
0G
0H
b0 I
0J
b1011 K
b110100 L
0N
b1000 R
b0 a
b0 b
1c
0d
0e
0f
b0 g
1h
0i
b0 j
b0 k
b0 l
b0 m
0n
0o
1p
0q
1r
1s
0t
0u
b0 v
0w
1y
0}
1~
#125000
1!
1N
#130000
0!
b1100 %
b110 '
b101 (
b11 5
b1 =
b10000010100110001010101010100110111001001100011 =!
b10010010110110101101101010100110111001001100011 @!
b0 A!
b0 B!
b0 D!
b0 E!
b100000101001110010001000010000001001001011011010110110101100101011001000110100101100001011101000110010100111010001000000100000101001110010001000100100100100000011100100011010100101100001000000111001000110110001011000010000000110000011110000100011001000110 F!
b1100 K
b111001 L
0N
b1100 R
b0 a
b11 b
1c
0d
0e
0f
b0 g
1h
0i
b1 j
1p
0q
1r
1s
0w
#135000
1!
1N
#140000
0!
1!!
1#!
b0 %
b100000 &
b110 '
b11 (
b110 )
1,
b1 4
b10 5
06
b0 =
b10000010100110001010101010100110111001001100011 =!
b10 >
b1 A!
b1 B!
b11 D!
b11 E!
b100010101011000001011010111010001101111001011010100010101011000001000000100011001101111011100100111011101100001011100100110010001101001011011100110011100111010001000000100011001101111011100100111011101100001011100100110010001000001 F!
b1101 K
b111101 L
0N
b0 R
b100000 S
b11 U
b110 V
1Y
b1 a
b10 b
0c
0d
0e
0f
b0 g
1h
0i
b0 j
b10 k
b0 l
b0 m
0n
0o
1p
0q
1r
1s
0w
1x
0y
#145000
1!
1N
#150000
0!
0#!
1%!
b111 '
b11 (
b0 )
b111 *
0,
1-
b1 >
b100011001101111011100100111011101100001011100100110010001000010 @!
b0 A!
b0 B!
b10011010100010101001101001011010111010001101111001011010100010101011000001000000100011001101111011100100111011101100001011100100110010001101001011011100110011100111010001000000100011001101111011100100111011101100001011100100110010001000001 F!
b1110 K
b111111 L
0N
b111 T
b0 V
b111 W
0Y
1Z
b1 k
b0 l
b0 m
0n
0o
#155000
1!
1N
#160000
0!
1$!
0%!
b1 '
b1000 (
b1000 )
b0 *
1,
0-
b0 >
b10 ?
b100011001101111011100100111011101100001011100100110010001000010 @!
b0 A!
b0 B!
b100010101011000001011010111010001101111001011010100010101011000001000000100011001101111011100100111011101100001011100100110010001101001011011100110011100111010001000000100011001101111011100100111011101100001011100100110010001000010 F!
b1111 K
b1000001 L
0N
b1 T
b1000 U
b1000 V
b0 W
1Y
0Z
b0 k
b10 l
b0 m
0n
0o
#165000
1!
1N
#170000
0!
1#!
0$!
b0 %
b100000 &
b110 '
b11 (
b110 )
1)!
1/
b0 ?
b100011001101111011100100111011101100001011100100110010001000010 @!
1A
b10 A!
1B
b10 B!
0E
0F
b1001100011011110110000101100100001011010101010101110011011001010010000001001000011000010111101001100001011100100110010000111010001000000101001101110100011000010110110001101100001000000101000001101001011100000110010101101100011010010110111001100101 F!
1H
b10000 K
b1000011 L
0N
b110 T
b11 U
b110 V
1\
0f
b0 k
b0 l
b0 m
1n
1o
1p
0q
0r
0s
0t
1u
b0 v
0w
#175000
1!
1N
#180000
0!
b0 #
0#!
b0 $
b0 %
b100000 &
b110 '
b11 (
b1010 )
0)!
b0 *
b0 +
0,
0/
b100100101000100010111110100010101011000010111110100011001101100011101010111001101101000 =!
1>!
1?!
0A
0B
1E
1F
b1001110011011110010000001001000011000010111101001100001011100100110010000111010001000000100111001101111011100100110110101100001011011000010000001010000011010010111000001100101011011000110100101101110011001010010000001000110011011000110111101110111 F!
0H
b10001 K
b1001000 L
0N
b100000 S
b110 T
b11 U
b1010 V
0Y
0\
0f
b0 k
b0 l
b0 m
0n
0o
1p
0q
1r
1s
0t
0u
b0 v
0w
#185000
1!
1N
#190000
0!
0"!
1#!
b100 %
b110 '
1'!
b101 (
b110 )
1,
b0 4
b1 5
17
0;
b10 =
b100100101000110010111110100100101000100010111110101011101110010011010010111010001100101 =!
b10 >
1>!
1?!
b10 @
b100011001101111011100100111011101100001011100100110010001000010 @!
b0 A!
b0 B!
0C
b100001001110010011000010110111001100011011010000010000001000011011011110110110101110000011000010111001001100001011101000110111101110010001000000100011001101111011100100111011101100001011100100110010001101001011011100110011100111010001000000100011001101111011100100111011101100001011100100110010001000011 F!
1J
b10010 K
b1001110 L
0N
b100 R
b101 U
b110 V
1Y
b0 a
b1 b
0c
1d
0e
0f
b0 g
0h
0i
b10 j
b10 k
b0 l
b10 m
0n
0o
0p
0q
1r
1s
1w
0x
1|
#195000
1!
1N
#200000
0!
b100 %
b10000100111001001100001011011100110001101101000 =!
b100011001101111011100100111011101100001011100100110010001000011 @!
b10 A!
b10 B!
b1010100011000010111001001100111011001010111010000100000010000010110010001100100011100100110010101110011011100110010000001010010011001010110000101100100011110010011101000100000010000100111001001100001011011100110001101101000 F!
b10011 K
b1010000 L
0N
#205000
1!
1N
#210000
0!
0!!
0#!
b10 %
0'!
b0 5
07
1<
b11 =
b10101000110000101110010011001110110010101110100010000010110010001100100011100100101001001100101011000010110010001111001 =!
b0 >
b0 @
1C
1D
b101010001100001011100100110011101100101011101000010000001000001011001000110010001110010011001010111001101110011001000000101001001100101011000010110010001111001001110100010000001001010011101010110110101110000 F!
1G
1H
b10 I
b10100 K
b1010001 L
0N
b10 R
b0 a
b0 b
0c
0d
0e
0f
b0 g
0h
1i
b11 j
b0 k
b0 l
b0 m
0n
0o
1p
1q
1r
1s
1t
1u
b10 v
1w
0|
1}
0~
#215000
1!
1N
#220000
0!
1!!
1"!
b0 %
b1000 &
b11111 '
b1 4
b10 5
b0 =
b10010100111010101101101011100000010000001010010011001010110011101101001011100110111010001100101011100100011101000100000010010100101001000100000011100100011001100110001 F!
0J
b10101 K
b1010010 L
0N
b0 R
b1000 S
b11111 T
b1 a
b10 b
0c
0d
0e
0f
b0 g
0h
1i
b0 j
b0 k
b0 l
b0 m
0n
0o
1p
1q
1r
1s
1t
1u
b10 v
0w
1x
0}
1~
#225000
1!
1N
#230000
0!
b100001001110010011000010110111001100011011010000101010001100001011010110110010101101110 =!
1>!
1?!
b1010101 L
0N
